// Jest Snapshot v1, https://goo.gl/fbAQLP

exports[`BlogPostPreview renders correctly 1`] = `
<BlogPostTemplate
  content="body"
  contentComponent={[Function]}
  description="
    It's fresh off the press and set to impress. And cliche, too.
    "
  featuredMedia={Object {}}
  tableOfContents=""
  tags={
    Array [
      "new",
      "fresh",
    ]
  }
  title="My New Blog Post"
/>
`;
