// Jest Snapshot v1, https://goo.gl/fbAQLP

exports[`NavLink renders correctly 1`] = `
.emotion-2 {
  margin-bottom: 0;
  display: -webkit-box;
  display: -webkit-flex;
  display: -ms-flexbox;
  display: flex;
  -webkit-flex-basis: auto;
  -ms-flex-preferred-size: auto;
  flex-basis: auto;
  height: 100%;
}

.emotion-0 {
  display: inline-block;
  position: relative;
  padding: 0 1.3em;
  opacity: 0.9;
  color: var(--primary-color);
  -webkit-text-decoration: none;
  text-decoration: none;
  -webkit-letter-spacing: 0.16rem;
  -moz-letter-spacing: 0.16rem;
  -ms-letter-spacing: 0.16rem;
  letter-spacing: 0.16rem;
  text-transform: uppercase;
  font-size: 1rem;
  font-weight: bold;
  -webkit-transition: background-color 0.2s ease-in-out,opacity 0.1s ease-in;
  transition: background-color 0.2s ease-in-out,opacity 0.1s ease-in;
}

.emotion-0:after {
  content: '';
  display: block;
  position: absolute;
  bottom: 0;
  left: 0;
  background-color: var(--primary-color);
  height: 4px;
  width: 100%;
  -webkit-transform: scaleX(0);
  -ms-transform: scaleX(0);
  transform: scaleX(0);
}

.emotion-0:hover,
.emotion-0:focus {
  outline: 0;
  opacity: 1;
}

.emotion-0:hover:after,
.emotion-0:focus:after {
  -webkit-transition: -webkit-transform ease 250ms;
  -webkit-transition: transform ease 250ms;
  transition: transform ease 250ms;
  -webkit-transform: scaleX(1);
  -ms-transform: scaleX(1);
  transform: scaleX(1);
}

.emotion-0.active {
  box-shadow: inset 0px -4px 0px var(--primary-color-variant);
  background-color: hsla(0,0%,30%,0.1);
}

.emotion-0:visited {
  color: var(--primary-color);
}

<li
  class="emotion-2 emotion-3"
>
  <a
    class="emotion-0 emotion-1"
    to="https://www.ornous.com"
  >
    Label
  </a>
</li>
`;
