// Jest Snapshot v1, https://goo.gl/fbAQLP

exports[`GridLayout renders correctly 1`] = `
<GridContainer>
  <Grid>
    <Header>
      <Hero
        alt="Hero Description"
        heading="Hero Title"
        imageData={
          Object {
            "src": "",
          }
        }
      />
      <_default />
    </Header>
    <MainArea>
      Children
    </MainArea>
    <Footer />
  </Grid>
</GridContainer>
`;
