// Jest Snapshot v1, https://goo.gl/fbAQLP

exports[`Heading should render correctly 1`] = `
.emotion-0 {
  color: var(--on-primary-color);
  text-align: center;
}

<h3
  class="emotion-0 emotion-1"
>
  Label
</h3>
`;
