// Jest Snapshot v1, https://goo.gl/fbAQLP

exports[`Footer Copyright should render the current year 1`] = `
<DimText>
  Copyright © 
  2020
   
  <a
    to="/"
  >
    Ousmane Ndiaye
  </a>
</DimText>
`;

exports[`Footer Nav should render correctly 1`] = `
<Fragment>
  <Heading>
    Quick Links
  </Heading>
  <List>
    Label
  </List>
</Fragment>
`;
